<?xml version="1.0" encoding="utf-8"?>
<!-- Generator: Adobe Illustrator 19.0.0, SVG Export Plug-In . SVG Version: 6.00 Build 0)  -->
<!DOCTYPE svg PUBLIC "-//W3C//DTD SVG 1.1//EN" "http://www.w3.org/Graphics/SVG/1.1/DTD/svg11.dtd">
<svg version="1.1" id="Laag_1" xmlns="http://www.w3.org/2000/svg" xmlns:xlink="http://www.w3.org/1999/xlink" x="0px" y="0px"
	 viewBox="-525.7 229.2 624 108" style="enable-background:new -525.7 229.2 624 108;" xml:space="preserve">
<style type="text/css">
	.st0{fill:#FFFFFF;}
</style>
<path id="XMLID_31_" class="st0" d="M-499,316h41.3v16.8h-65v-12.2l40.9-71.2h-41.3v-16.8h64.6v11.9L-499,316z"/>
<path id="XMLID_33_" class="st0" d="M-396.5,312.3h-27.6l-5.4,20.5h-21.4l31.3-100.2h18.5l31.5,100.2h-21.6L-396.5,312.3z
	 M-419.7,295.5h18.7l-9.4-35.7L-419.7,295.5z"/>
<path id="XMLID_36_" class="st0" d="M-312.3,312.3h-27.6l-5.4,20.5h-21.4l31.3-100.2h18.5l31.5,100.2H-307L-312.3,312.3z
	 M-335.5,295.5h18.7l-9.4-35.7L-335.5,295.5z"/>
<path id="XMLID_39_" class="st0" d="M-247.8,294.2l-8,10.1v28.6H-276V232.6h20.2v43.7l6.4-10.8l18.7-32.9h24.8l-28.7,44.1l29.2,56.2
	h-24L-247.8,294.2z"/>
<path id="XMLID_41_" class="st0" d="M-155.6,306.5c0-1.7-0.2-3.3-0.5-4.7s-1-2.7-2-3.9c-1-1.2-2.5-2.4-4.4-3.5s-4.4-2.4-7.6-3.6
	c-3.8-1.4-7.4-3.1-10.8-4.9c-3.4-1.8-6.4-4-9-6.5s-4.7-5.4-6.2-8.7c-1.5-3.3-2.3-7.1-2.3-11.5c0-4.2,0.8-8,2.3-11.5
	c1.6-3.5,3.8-6.4,6.6-8.8c2.8-2.4,6.2-4.3,10.1-5.7s8.2-2,12.8-2c4.8,0,9.2,0.8,13,2.3c3.9,1.5,7.2,3.7,9.9,6.4
	c2.7,2.7,4.8,6,6.3,9.8s2.2,8,2.2,12.5h-20.2c0-2.1-0.2-4-0.7-5.8c-0.4-1.8-1.1-3.3-2.1-4.5c-0.9-1.3-2.1-2.2-3.6-3
	c-1.5-0.7-3.2-1.1-5.3-1.1c-1.9,0-3.6,0.3-5,0.9s-2.6,1.4-3.5,2.4s-1.6,2.3-2.1,3.7s-0.7,2.9-0.7,4.5c0,1.7,0.4,3.1,1.1,4.5
	c0.7,1.3,1.7,2.6,3,3.7s2.9,2.2,4.8,3.2s3.9,2,6.2,3c4.7,1.7,8.8,3.6,12.3,5.6c3.5,2.1,6.4,4.4,8.7,7c2.3,2.6,4.1,5.6,5.2,8.8
	c1.1,3.3,1.7,7,1.7,11.1c0,4.4-0.7,8.3-2.2,11.8c-1.4,3.4-3.5,6.3-6.2,8.7s-5.9,4.2-9.7,5.4c-3.8,1.3-8.1,1.9-12.9,1.9
	c-4.3,0-8.5-0.7-12.7-2c-4.2-1.3-7.9-3.3-11.1-6c-3.3-2.7-5.9-6.1-7.9-10.3c-2-4.1-3-9-3-14.7h20.3c0,3,0.3,5.6,0.9,7.7
	c0.6,2.1,1.5,3.8,2.7,5.1c1.2,1.3,2.7,2.2,4.5,2.8s3.9,0.9,6.3,0.9c1.9,0,3.6-0.3,4.9-0.9c1.4-0.6,2.5-1.4,3.3-2.3
	c0.8-1,1.5-2.2,1.8-3.5C-156.1,309.5-155.6,308.2-155.6,306.5z"/>
<path id="XMLID_43_" class="st0" d="M-56.9,249.5h-24.8v83.4H-102v-83.4h-24.4v-16.9h69.5V249.5z"/>
<path id="XMLID_45_" class="st0" d="M-5.7,312.3h-27.6l-5.4,20.5h-21.4l31.3-100.2h18.5l31.5,100.2H-0.4L-5.7,312.3z M-28.9,295.5
	h18.7l-9.4-35.7L-28.9,295.5z"/>
<path id="XMLID_48_" class="st0" d="M30.7,332.8V232.6h26.5c5.8,0,11,1,15.8,2.9c4.8,1.9,8.8,4.7,12.2,8.3c3.4,3.6,6,8,7.8,13.3
	c1.9,5.3,2.8,11.3,2.8,18v15.6c0,6.7-0.9,12.7-2.8,18c-1.8,5.2-4.5,9.7-7.8,13.3c-3.4,3.6-7.5,6.3-12.3,8.2s-10.1,2.8-16,2.8H30.7
	V332.8z M50.9,249.5v66.6H57c3.6,0,6.6-0.5,8.9-1.4c2.4-0.9,4.3-2.4,5.7-4.5c1.4-2.1,2.4-4.7,3-7.9c0.6-3.2,0.9-7.1,0.9-11.6v-15.8
	c0-4.6-0.3-8.5-0.9-11.7c-0.6-3.2-1.6-5.8-3-7.8s-3.3-3.5-5.7-4.4c-2.4-0.9-5.3-1.4-8.8-1.4L50.9,249.5L50.9,249.5z"/>
</svg>
