{
    "object" : {
       "type" : "customer_config",
       "id" : "d9f35d3b-12ff-4bc3-9592-c10505f71233",
       "values" : {
          "customer_id" : "betrokkene-bedrijf-1",
          "huisnummer" : "1",
          "postbus_postcode" : "",
          "telefoonnummer" : "",
          "postcode" : "1234 AA",
          "gemeente_id_url" : "http://mijn.overheid.nl/Testbedrijf",
          "woonplaats" : "Testdorp",
          "website" : "",
          "accept_ip" : "10.44.0.1.12",
          "accept_url" : "http://mijn.accept.example.com",
          "domain" : "example.com",
          "naam_kort" : "Testbedrijf",
          "production_ip" : "10.44.0.11",
          "email" : "test@example.com",
          "faxnummer" : "",
          "straatnaam" : "Teststraat",
          "ad_key" : "",
          "naam_lang" : "Testbedrijf",
          "gemeente_portal" : "http://example.com",
          "postbus" : "",
          "production_url" : "http://mijn.example.com",
          "cloud" : "government"
       }
    }
}
